<svg width="178" height="145" viewBox="0 0 178 145" fill="none" xmlns="http://www.w3.org/2000/svg">
<circle cx="89" cy="73" r="57" fill="#FFF0E6"/>
<path d="M52.2621 91.5027L76.7908 91.5026C77.4483 91.5026 77.9269 92.1263 77.7567 92.7614L64.883 140.807C64.5852 141.918 66.0924 142.571 66.6989 141.592L111.205 69.8027C112.444 67.8042 111.007 65.222 108.655 65.222L86.4391 65.222C85.7816 65.222 85.303 64.5983 85.4732 63.9631L100.107 9.34786C100.405 8.23615 98.8979 7.58394 98.2914 8.56214L49.7123 86.922C48.4734 88.9205 49.9107 91.5027 52.2621 91.5027Z" fill="#C4C4C4"/>
<path d="M52.2621 91.5027L76.7908 91.5026C77.4483 91.5026 77.9269 92.1263 77.7567 92.7614L64.883 140.807C64.5852 141.918 66.0924 142.571 66.6989 141.592L111.205 69.8027C112.444 67.8042 111.007 65.222 108.655 65.222L86.4391 65.222C85.7816 65.222 85.303 64.5983 85.4732 63.9631L100.107 9.34786C100.405 8.23615 98.8979 7.58394 98.2914 8.56214L49.7123 86.922C48.4734 88.9205 49.9107 91.5027 52.2621 91.5027Z" fill="url(#paint0_linear)"/>
<path d="M126.746 48.1518L137.897 48.1517C138.554 48.1517 139.033 48.7754 138.863 49.4105L132.401 73.5257C132.103 74.6375 133.61 75.2897 134.217 74.3115L156.906 37.7129C158.145 35.7144 156.708 33.1322 154.356 33.1322L144.528 33.1322C143.87 33.1322 143.392 32.5085 143.562 31.8734L151.029 4.00331C151.327 2.89159 149.82 2.23937 149.214 3.21757L124.197 43.571C122.958 45.5696 124.395 48.1518 126.746 48.1518Z" fill="#C4C4C4"/>
<path d="M126.746 48.1518L137.897 48.1517C138.554 48.1517 139.033 48.7754 138.863 49.4105L132.401 73.5257C132.103 74.6375 133.61 75.2897 134.217 74.3115L156.906 37.7129C158.145 35.7144 156.708 33.1322 154.356 33.1322L144.528 33.1322C143.87 33.1322 143.392 32.5085 143.562 31.8734L151.029 4.00331C151.327 2.89159 149.82 2.23937 149.214 3.21757L124.197 43.571C122.958 45.5696 124.395 48.1518 126.746 48.1518Z" fill="url(#paint1_linear)"/>
<path d="M126.746 48.1518L137.897 48.1517C138.554 48.1517 139.033 48.7754 138.863 49.4105L132.401 73.5257C132.103 74.6375 133.61 75.2897 134.217 74.3115L156.906 37.7129C158.145 35.7144 156.708 33.1322 154.356 33.1322L144.528 33.1322C143.87 33.1322 143.392 32.5085 143.562 31.8734L151.029 4.00331C151.327 2.89159 149.82 2.23937 149.214 3.21757L124.197 43.571C122.958 45.5696 124.395 48.1518 126.746 48.1518Z" fill="url(#paint2_linear)"/>
<path d="M34.0926 45.2568L38.8064 45.2568C39.4639 45.2568 39.9425 45.8805 39.7723 46.5156L36.3956 59.1176C36.0977 60.2293 37.605 60.8815 38.2115 59.9033L50.4042 40.236C51.6432 38.2375 50.2059 35.6553 47.8545 35.6553L43.9856 35.6553C43.328 35.6553 42.8494 35.0316 43.0196 34.3965L47.0395 19.3942C47.3374 18.2824 45.8301 17.6302 45.2236 18.6084L31.5428 40.6761C30.3038 42.6746 31.7412 45.2568 34.0926 45.2568Z" fill="#C4C4C4"/>
<path d="M34.0926 45.2568L38.8064 45.2568C39.4639 45.2568 39.9425 45.8805 39.7723 46.5156L36.3956 59.1176C36.0977 60.2293 37.605 60.8815 38.2115 59.9033L50.4042 40.236C51.6432 38.2375 50.2059 35.6553 47.8545 35.6553L43.9856 35.6553C43.328 35.6553 42.8494 35.0316 43.0196 34.3965L47.0395 19.3942C47.3374 18.2824 45.8301 17.6302 45.2236 18.6084L31.5428 40.6761C30.3038 42.6746 31.7412 45.2568 34.0926 45.2568Z" fill="url(#paint3_linear)"/>
<path d="M34.0926 45.2568L38.8064 45.2568C39.4639 45.2568 39.9425 45.8805 39.7723 46.5156L36.3956 59.1176C36.0977 60.2293 37.605 60.8815 38.2115 59.9033L50.4042 40.236C51.6432 38.2375 50.2059 35.6553 47.8545 35.6553L43.9856 35.6553C43.328 35.6553 42.8494 35.0316 43.0196 34.3965L47.0395 19.3942C47.3374 18.2824 45.8301 17.6302 45.2236 18.6084L31.5428 40.6761C30.3038 42.6746 31.7412 45.2568 34.0926 45.2568Z" fill="url(#paint4_linear)"/>
<path d="M104.093 125.257L108.806 125.257C109.464 125.257 109.942 125.881 109.772 126.516L106.396 139.118C106.098 140.229 107.605 140.882 108.211 139.903L120.404 120.236C121.643 118.237 120.206 115.655 117.854 115.655L113.985 115.655C113.328 115.655 112.849 115.032 113.02 114.396L117.039 99.3942C117.337 98.2824 115.83 97.6302 115.224 98.6084L101.543 120.676C100.304 122.675 101.741 125.257 104.093 125.257Z" fill="#C4C4C4"/>
<path d="M104.093 125.257L108.806 125.257C109.464 125.257 109.942 125.881 109.772 126.516L106.396 139.118C106.098 140.229 107.605 140.882 108.211 139.903L120.404 120.236C121.643 118.237 120.206 115.655 117.854 115.655L113.985 115.655C113.328 115.655 112.849 115.032 113.02 114.396L117.039 99.3942C117.337 98.2824 115.83 97.6302 115.224 98.6084L101.543 120.676C100.304 122.675 101.741 125.257 104.093 125.257Z" fill="url(#paint5_linear)"/>
<path d="M104.093 125.257L108.806 125.257C109.464 125.257 109.942 125.881 109.772 126.516L106.396 139.118C106.098 140.229 107.605 140.882 108.211 139.903L120.404 120.236C121.643 118.237 120.206 115.655 117.854 115.655L113.985 115.655C113.328 115.655 112.849 115.032 113.02 114.396L117.039 99.3942C117.337 98.2824 115.83 97.6302 115.224 98.6084L101.543 120.676C100.304 122.675 101.741 125.257 104.093 125.257Z" fill="url(#paint6_linear)"/>
<defs>
<linearGradient id="paint0_linear" x1="100.782" y1="2.51628" x2="62.0511" y2="147.06" gradientUnits="userSpaceOnUse">
<stop stop-color="#EAB085"/>
<stop offset="1" stop-color="#D99665"/>
</linearGradient>
<linearGradient id="paint1_linear" x1="152.166" y1="-2.70441" x2="130.031" y2="79.903" gradientUnits="userSpaceOnUse">
<stop stop-color="#EAB085"/>
<stop offset="1" stop-color="#D99665"/>
</linearGradient>
<linearGradient id="paint2_linear" x1="152.166" y1="-2.70441" x2="130.031" y2="79.903" gradientUnits="userSpaceOnUse">
<stop stop-color="#FFDEC6"/>
<stop offset="1" stop-color="#EAB085"/>
</linearGradient>
<linearGradient id="paint3_linear" x1="48.3984" y1="12.746" x2="34.2484" y2="65.5544" gradientUnits="userSpaceOnUse">
<stop stop-color="#EAB085"/>
<stop offset="1" stop-color="#D99665"/>
</linearGradient>
<linearGradient id="paint4_linear" x1="48.3984" y1="12.746" x2="34.2484" y2="65.5544" gradientUnits="userSpaceOnUse">
<stop stop-color="#FFDEC6"/>
<stop offset="1" stop-color="#EAB085"/>
</linearGradient>
<linearGradient id="paint5_linear" x1="118.398" y1="92.746" x2="104.248" y2="145.554" gradientUnits="userSpaceOnUse">
<stop stop-color="#EAB085"/>
<stop offset="1" stop-color="#D99665"/>
</linearGradient>
<linearGradient id="paint6_linear" x1="118.398" y1="92.746" x2="104.248" y2="145.554" gradientUnits="userSpaceOnUse">
<stop stop-color="#FFDEC6"/>
<stop offset="1" stop-color="#EAB085"/>
</linearGradient>
</defs>
</svg>
