<svg width="16" height="16" viewBox="0 0 16 16" fill="none" xmlns="http://www.w3.org/2000/svg">
<path d="M0 6.8936L0 6H0.904117H8L15.0959 6H16V6.8936V14.5234C16 14.9162 15.8428 15.2925 15.5635 15.5686C15.2838 15.845 14.9065 16 14.5133 16H8H1.4311C1.07352 16 0.730359 15.859 0.476039 15.6077C0.171429 15.3066 0 14.8961 0 14.4678L0 6.8936Z" fill="url(#paint0_linear)"/>
<path d="M8.6 0.45L16 6L8 6L0 6L7.4 0.45C7.75555 0.183334 8.24444 0.183334 8.6 0.45Z" fill="url(#paint1_linear)"/>
<path fill-rule="evenodd" clip-rule="evenodd" d="M2 16L5 16L5 11.3707C5 10.0614 3.93862 9 2.62934 9C2.28177 9 2 9.28177 2 9.62935V10V16ZM6 16L9 16L9 11.3707C9 10.0614 7.93862 9 6.62934 9C6.28177 9 6 9.28177 6 9.62935V10L6 16ZM13 16L10 16L10 10V9.62935C10 9.28177 10.2818 9 10.6293 9C11.9386 9 13 10.0614 13 11.3707V16Z" fill="url(#paint2_linear)"/>
<defs>
<linearGradient id="paint0_linear" x1="8.50988" y1="6" x2="8.50988" y2="16" gradientUnits="userSpaceOnUse">
<stop stop-color="#EAB085"/>
<stop offset="1" stop-color="#D99665"/>
</linearGradient>
<linearGradient id="paint1_linear" x1="7.19485" y1="5.89551" x2="7.19485" y2="-1.10449" gradientUnits="userSpaceOnUse">
<stop stop-color="#FFDEC6"/>
<stop offset="1" stop-color="#EAB085"/>
</linearGradient>
<linearGradient id="paint2_linear" x1="11.349" y1="16" x2="11.349" y2="7.63184" gradientUnits="userSpaceOnUse">
<stop stop-color="#FFDEC6"/>
<stop offset="1" stop-color="#EAB085"/>
</linearGradient>
</defs>
</svg>
