<svg width="200" height="701" viewBox="0 0 200 701" fill="none" xmlns="http://www.w3.org/2000/svg">
<circle cx="112" cy="253" r="28" fill="#2783FE"/>
<circle cx="81" cy="646" r="14" fill="#4A4545"/>
<circle cx="18" cy="398" r="18" fill="#F57373"/>
<circle cx="27.5" cy="93.5" r="8.5" fill="#F57373"/>
</svg>
