<svg width="1920" height="912" viewBox="0 0 1920 912" fill="none" xmlns="http://www.w3.org/2000/svg">
<path d="M654 757.491C403.2 904.291 87.8333 860.991 -38.5 820.991L-269 673.991V1016.99H2241V223.491C2093.5 27.4907 1713 -44.9093 1433 27.4907C1083 117.991 967.5 573.991 654 757.491Z" fill="#FFD8BB"/>
</svg>
